\relax 
\providecommand\hyper@newdestlabel[2]{}
\providecommand\HyperFirstAtBeginDocument{\AtBeginDocument}
\HyperFirstAtBeginDocument{\ifx\hyper@anchor\@undefined
\global\let\oldcontentsline\contentsline
\gdef\contentsline#1#2#3#4{\oldcontentsline{#1}{#2}{#3}}
\global\let\oldnewlabel\newlabel
\gdef\newlabel#1#2{\newlabelxx{#1}#2}
\gdef\newlabelxx#1#2#3#4#5#6{\oldnewlabel{#1}{{#2}{#3}}}
\AtEndDocument{\ifx\hyper@anchor\@undefined
\let\contentsline\oldcontentsline
\let\newlabel\oldnewlabel
\fi}
\fi}
\global\let\hyper@last\relax 
\gdef\HyperFirstAtBeginDocument#1{#1}
\providecommand\HyField@AuxAddToFields[1]{}
\providecommand\HyField@AuxAddToCoFields[2]{}
\citation{fieneforward2014}
\citation{petersenmultiple2012}
\bibstyle{abbrv}
\bibdata{../me530646}
\bibcite{fieneforward2014}{1}
\bibcite{petersenmultiple2012}{2}
\@writefile{lof}{\contentsline {figure}{\numberline {1}{\ignorespaces Left: Schematic of a Simple Robot Manipulator \cite  {fieneforward2014}. Right: Shematic of UR5 \cite  {petersenmultiple2012}.}}{2}{figure.1}}
\newlabel{schematic}{{1}{2}{Left: Schematic of a Simple Robot Manipulator \cite {fieneforward2014}. Right: Shematic of UR5 \cite {petersenmultiple2012}}{figure.1}{}}
\newlabel{plotlinks}{{6}{2}{Assignment}{Item.6}{}}
