\relax 
\providecommand\hyper@newdestlabel[2]{}
\providecommand\HyperFirstAtBeginDocument{\AtBeginDocument}
\HyperFirstAtBeginDocument{\ifx\hyper@anchor\@undefined
\global\let\oldcontentsline\contentsline
\gdef\contentsline#1#2#3#4{\oldcontentsline{#1}{#2}{#3}}
\global\let\oldnewlabel\newlabel
\gdef\newlabel#1#2{\newlabelxx{#1}#2}
\gdef\newlabelxx#1#2#3#4#5#6{\oldnewlabel{#1}{{#2}{#3}}}
\AtEndDocument{\ifx\hyper@anchor\@undefined
\let\contentsline\oldcontentsline
\let\newlabel\oldnewlabel
\fi}
\fi}
\global\let\hyper@last\relax 
\gdef\HyperFirstAtBeginDocument#1{#1}
\providecommand\HyField@AuxAddToFields[1]{}
\providecommand\HyField@AuxAddToCoFields[2]{}
\@writefile{lof}{\contentsline {figure}{\numberline {1}{\ignorespaces D-H Convention Frame Assignment}}{1}{figure.1}}
\newlabel{Frames}{{1}{1}{D-H Convention Frame Assignment}{figure.1}{}}
\@writefile{lot}{\contentsline {table}{\numberline {1}{\ignorespaces D-H Parameters}}{1}{table.1}}
\newlabel{DH Params}{{1}{1}{D-H Parameters}{table.1}{}}
\citation{spongrobot2006}
\newlabel{Tij}{{2}{2}{Introduction}{equation.0.2}{}}
\@writefile{lof}{\contentsline {figure}{\numberline {2}{\ignorespaces Finding the Origin of the $5^{th}$ Frame}}{2}{figure.2}}
\newlabel{P5}{{2}{2}{Finding the Origin of the $5^{th}$ Frame}{figure.2}{}}
\@writefile{lof}{\contentsline {figure}{\numberline {3}{\ignorespaces Finding $\theta _1$}}{3}{figure.3}}
\newlabel{Theta1}{{3}{3}{Finding $\theta _1$}{figure.3}{}}
\newlabel{phi}{{5}{3}{Inverse Kinematics}{equation.0.5}{}}
\@writefile{lof}{\contentsline {figure}{\numberline {4}{\ignorespaces The Workspace of the UR5}}{4}{figure.4}}
\newlabel{Workspace}{{4}{4}{The Workspace of the UR5}{figure.4}{}}
\newlabel{q5}{{6}{4}{Inverse Kinematics}{equation.0.6}{}}
\@writefile{lof}{\contentsline {figure}{\numberline {5}{\ignorespaces Finding $\theta _5$}}{5}{figure.5}}
\newlabel{Theta5}{{5}{5}{Finding $\theta _5$}{figure.5}{}}
\newlabel{q6}{{10}{5}{Inverse Kinematics}{equation.0.10}{}}
\@writefile{lof}{\contentsline {figure}{\numberline {6}{\ignorespaces Finding $\theta _6$}}{6}{figure.6}}
\newlabel{Theta6}{{6}{6}{Finding $\theta _6$}{figure.6}{}}
\newlabel{Theta31}{{13}{6}{Inverse Kinematics}{equation.0.13}{}}
\newlabel{Theta32}{{14}{6}{Inverse Kinematics}{equation.0.14}{}}
\newlabel{q3}{{15}{6}{Inverse Kinematics}{equation.0.15}{}}
\newlabel{Theta21}{{16}{6}{Inverse Kinematics}{equation.0.16}{}}
\newlabel{Theta22}{{17}{6}{Inverse Kinematics}{equation.0.17}{}}
\@writefile{lof}{\contentsline {figure}{\numberline {7}{\ignorespaces Finding $\theta _2$ and $\theta _3$}}{7}{figure.7}}
\newlabel{Theta23}{{7}{7}{Finding $\theta _2$ and $\theta _3$}{figure.7}{}}
\@writefile{lof}{\contentsline {subfigure}{\numberline{(a)}{\ignorespaces {Shoulder Left, Elbow Up, Wrist Down}}}{8}{subfigure.8.8}}
\@writefile{lof}{\contentsline {subfigure}{\numberline{(b)}{\ignorespaces {Shoulder Left, Elbow Up, Wrist Up}}}{8}{subfigure.8.8}}
\@writefile{lof}{\contentsline {subfigure}{\numberline{(c)}{\ignorespaces {Shoulder Left, Elbow Down, Wrist Down}}}{8}{subfigure.8.8}}
\@writefile{lof}{\contentsline {subfigure}{\numberline{(d)}{\ignorespaces {Shoulder Left, Elbow Down, Wrist Up}}}{8}{subfigure.8.8}}
\@writefile{lof}{\contentsline {subfigure}{\numberline{(e)}{\ignorespaces {Shoulder Right, Elbow Down, Wrist Up}}}{8}{subfigure.8.8}}
\@writefile{lof}{\contentsline {subfigure}{\numberline{(f)}{\ignorespaces {Shoulder Right, Elbow Down, Wrist Down}}}{8}{subfigure.8.8}}
\@writefile{lof}{\contentsline {subfigure}{\numberline{(g)}{\ignorespaces {Shoulder Right, Elbow Up, Wrist Up}}}{8}{subfigure.8.8}}
\@writefile{lof}{\contentsline {subfigure}{\numberline{(h)}{\ignorespaces {Shoulder Right, Elbow Up, Wrist Down}}}{8}{subfigure.8.8}}
